LayerId:    1
LayerName:  Metal1
LayerType:  ROUTING
LayerDireciton:  HORIZONTAL
LayerMinWidth:  0.060000
LayerArea:  0.020000
LayerWidth: 0.060000
SPACING 0.060000
SPACING 0.090000 EOL 0.090000 WITHIN 0.025000
PRL:
Width 0.000000   0.060000
Width 0.100000   0.100000
Width 0.750000   0.250000
Width 1.500000   0.450000
PITCH 0.190000  0.190000
LayerId:    1
LayerName:  Metal2
LayerType:  ROUTING
LayerDireciton:  VERTICAL
LayerMinWidth:  0.070000
LayerArea:  0.020000
LayerWidth: 0.070000
SPACING 0.070000
SPACING 0.100000 EOL 0.100000 WITHIN 0.035000
PRL:
Width 0.000000   0.070000
Width 0.100000   0.150000
Width 0.750000   0.250000
Width 1.500000   0.450000
PITCH 0.200000  0.200000
LayerId:    1
LayerName:  Metal3
LayerType:  ROUTING
LayerDireciton:  HORIZONTAL
LayerMinWidth:  0.070000
LayerArea:  0.020000
LayerWidth: 0.070000
SPACING 0.070000
SPACING 0.100000 EOL 0.100000 WITHIN 0.035000
PRL:
Width 0.000000   0.070000
Width 0.100000   0.150000
Width 0.750000   0.250000
Width 1.500000   0.450000
PITCH 0.200000  0.200000
LayerId:    1
LayerName:  Metal4
LayerType:  ROUTING
LayerDireciton:  VERTICAL
LayerMinWidth:  0.070000
LayerArea:  0.020000
LayerWidth: 0.070000
SPACING 0.070000
SPACING 0.100000 EOL 0.100000 WITHIN 0.035000
PRL:
Width 0.000000   0.070000
Width 0.100000   0.150000
Width 0.750000   0.250000
Width 1.500000   0.450000
PITCH 0.200000  0.200000
LayerId:    1
LayerName:  Metal5
LayerType:  ROUTING
LayerDireciton:  HORIZONTAL
LayerMinWidth:  0.070000
LayerArea:  0.020000
LayerWidth: 0.070000
SPACING 0.070000
SPACING 0.100000 EOL 0.100000 WITHIN 0.035000
PRL:
Width 0.000000   0.070000
Width 0.100000   0.150000
Width 0.750000   0.250000
Width 1.500000   0.450000
PITCH 0.200000  0.200000
LayerId:    1
LayerName:  Metal6
LayerType:  ROUTING
LayerDireciton:  VERTICAL
LayerMinWidth:  0.070000
LayerArea:  0.020000
LayerWidth: 0.070000
SPACING 0.070000
SPACING 0.100000 EOL 0.100000 WITHIN 0.035000
PRL:
Width 0.000000   0.070000
Width 0.100000   0.150000
Width 0.750000   0.250000
Width 1.500000   0.450000
PITCH 0.200000  0.200000
LayerId:    1
LayerName:  Metal7
LayerType:  ROUTING
LayerDireciton:  HORIZONTAL
LayerMinWidth:  0.070000
LayerArea:  0.020000
LayerWidth: 0.070000
SPACING 0.070000
SPACING 0.100000 EOL 0.100000 WITHIN 0.035000
PRL:
Width 0.000000   0.070000
Width 0.100000   0.150000
Width 0.750000   0.250000
Width 1.500000   0.450000
PITCH 0.200000  0.200000
LayerId:    1
LayerName:  Metal8
LayerType:  ROUTING
LayerDireciton:  VERTICAL
LayerMinWidth:  0.070000
LayerArea:  0.020000
LayerWidth: 0.070000
SPACING 0.070000
SPACING 0.100000 EOL 0.100000 WITHIN 0.035000
PRL:
Width 0.000000   0.070000
Width 0.100000   0.150000
Width 0.750000   0.250000
Width 1.500000   0.450000
PITCH 0.200000  0.200000
LayerId:    1
LayerName:  Metal9
LayerType:  ROUTING
LayerDireciton:  HORIZONTAL
LayerMinWidth:  0.070000
LayerArea:  0.020000
LayerWidth: 0.070000
SPACING 0.070000
SPACING 0.100000 EOL 0.100000 WITHIN 0.035000
PRL:
Width 0.000000   0.070000
Width 0.100000   0.150000
Width 0.750000   0.250000
Width 1.500000   0.450000
PITCH 0.330000  0.330000
LayerId:    1
LayerName:  Via1
LayerType:  CUT
LayerWidth: 0.060000
SPACING 0.070000
LayerId:    1
LayerName:  Via2
LayerType:  CUT
LayerWidth: 0.070000
SPACING 0.070000
LayerId:    1
LayerName:  Via3
LayerType:  CUT
LayerWidth: 0.070000
SPACING 0.070000
LayerId:    1
LayerName:  Via4
LayerType:  CUT
LayerWidth: 0.070000
SPACING 0.070000
LayerId:    1
LayerName:  Via5
LayerType:  CUT
LayerWidth: 0.070000
SPACING 0.070000
LayerId:    1
LayerName:  Via6
LayerType:  CUT
LayerWidth: 0.070000
SPACING 0.070000
LayerId:    1
LayerName:  Via7
LayerType:  CUT
LayerWidth: 0.070000
SPACING 0.070000
LayerId:    1
LayerName:  Via8
LayerType:  CUT
LayerWidth: 0.070000
SPACING 0.070000
