Id:    1
Macro:  AO22XL
CLASS:  CORE
FOREIGN:  AO22XL 0.000000 0.000000
Size 1.600000 1.710000
Symmetry XY
Site CoreSite
Pin A0
Port
Layer Metal1
Rect (0.260000, 0.600000, 0.340000, 1.100000) 
END A0
Pin A1
Port
Layer Metal1
Rect (0.460000, 0.230000, 0.540000, 0.730000) 
END A1
Pin B0
Port
Layer Metal1
Rect (1.060000, 0.790000, 1.140000, 1.230000) 
Layer Metal1
Rect (1.000000, 0.790000, 1.140000, 0.870000) 
END B0
Pin B1
Port
Layer Metal1
Rect (0.660000, 0.595000, 0.740000, 1.095000) 
END B1
Pin VDD
Port
Layer Metal1
Rect (0.000000, 1.650000, 1.600000, 1.710000) 
END VDD
Pin VSS
Port
Layer Metal1
Rect (0.000000, 0.000000, 1.600000, 0.060000) 
END VSS
Pin Y
Port
Layer Metal1
Rect (1.260000, 0.910000, 1.510000, 0.990000) 
Layer Metal1
Rect (1.260000, 0.600000, 1.340000, 0.990000) 
Layer Metal1
Rect (1.250000, 0.600000, 1.340000, 0.680000) 
Layer Metal1
Rect (1.250000, 0.405000, 1.330000, 0.680000) 
Layer Metal1
Rect (1.260000, 0.405000, 1.330000, 0.990000) 
END Y
Id:    1
Macro:  AOI221X1
CLASS:  CORE
FOREIGN:  AOI221X1 0.000000 0.000000
Size 1.800000 1.710000
Symmetry XY
Site CoreSite
Pin A0
Port
Layer Metal1
Rect (0.260000, 0.450000, 0.340000, 0.950000) 
END A0
Pin A1
Port
Layer Metal1
Rect (0.460000, 0.220000, 0.540000, 0.720000) 
END A1
Pin B0
Port
Layer Metal1
Rect (1.060000, 0.580000, 1.140000, 1.080000) 
END B0
Pin B1
Port
Layer Metal1
Rect (0.860000, 0.580000, 0.940000, 1.080000) 
END B1
Pin C0
Port
Layer Metal1
Rect (1.260000, 0.650000, 1.380000, 0.730000) 
Layer Metal1
Rect (1.260000, 0.580000, 1.340000, 1.040000) 
END C0
Pin VDD
Port
Layer Metal1
Rect (0.000000, 1.650000, 1.800000, 1.710000) 
END VDD
Pin VSS
Port
Layer Metal1
Rect (0.000000, 0.000000, 1.800000, 0.060000) 
END VSS
Pin Y
Port
Layer Metal1
Rect (1.460000, 0.220000, 1.540000, 0.480000) 
Layer Metal1
Rect (1.480000, 0.220000, 1.540000, 1.460000) 
Layer Metal1
Rect (0.870000, 0.420000, 1.540000, 0.480000) 
Layer Metal1
Rect (0.800000, 0.400000, 0.920000, 0.460000) 
END Y
Id:    1
Macro:  AOI221X2
CLASS:  CORE
FOREIGN:  AOI221X2 0.000000 0.000000
Size 2.600000 1.710000
Symmetry XY
Site CoreSite
Pin A0
Port
Layer Metal1
Rect (0.235000, 0.625000, 0.365000, 0.715000) 
Layer Metal1
Rect (0.285000, 0.610000, 0.960000, 0.690000) 
Layer Metal1
Rect (0.285000, 0.610000, 0.365000, 0.715000) 
Layer Metal1
Rect (0.235000, 0.625000, 0.960000, 0.690000) 
END A0
Pin A1
Port
Layer Metal1
Rect (0.660000, 0.765000, 0.740000, 1.065000) 
END A1
Pin B0
Port
Layer Metal1
Rect (1.635000, 0.625000, 1.765000, 0.715000) 
Layer Metal1
Rect (1.240000, 0.635000, 1.935000, 0.715000) 
END B0
Pin B1
Port
Layer Metal1
Rect (1.435000, 0.815000, 1.935000, 0.895000) 
END B1
Pin C0
Port
Layer Metal1
Rect (2.065000, 0.815000, 2.565000, 0.895000) 
END C0
Pin VDD
Port
Layer Metal1
Rect (0.000000, 1.650000, 2.600000, 1.710000) 
END VDD
Pin VSS
Port
Layer Metal1
Rect (0.000000, 0.000000, 2.600000, 0.060000) 
END VSS
Pin Y
Port
Layer Metal1
Rect (1.060000, 0.790000, 1.140000, 0.920000) 
Layer Metal1
Rect (2.220000, 0.995000, 2.280000, 1.135000) 
Layer Metal1
Rect (1.080000, 0.995000, 2.280000, 1.055000) 
Layer Metal1
Rect (1.080000, 0.450000, 1.140000, 1.055000) 
Layer Metal1
Rect (0.605000, 0.450000, 2.170000, 0.510000) 
END Y
Id:    1
Macro:  AOI222X1
CLASS:  CORE
FOREIGN:  AOI222X1 0.000000 0.000000
Size 1.800000 1.710000
Symmetry XY
Site CoreSite
Pin A0
Port
Layer Metal1
Rect (0.260000, 0.490000, 0.340000, 0.990000) 
END A0
Pin A1
Port
Layer Metal1
Rect (0.460000, 0.220000, 0.545000, 0.715000) 
END A1
Pin B0
Port
Layer Metal1
Rect (0.880000, 0.860000, 1.095000, 1.100000) 
Layer Metal1
Rect (0.860000, 0.755000, 0.940000, 0.920000) 
Layer Metal1
Rect (0.880000, 0.755000, 0.940000, 1.100000) 
Layer Metal1
Rect (0.860000, 0.860000, 1.095000, 0.920000) 
END B0
Pin B1
Port
Layer Metal1
Rect (0.660000, 0.620000, 0.760000, 0.920000) 
Layer Metal1
Rect (0.680000, 0.620000, 0.760000, 1.100000) 
END B1
Pin C0
Port
Layer Metal1
Rect (1.195000, 0.790000, 1.340000, 0.920000) 
Layer Metal1
Rect (1.195000, 0.790000, 1.275000, 1.225000) 
END C0
Pin C1
Port
Layer Metal1
Rect (1.440000, 0.620000, 1.540000, 1.100000) 
END C1
Pin VDD
Port
Layer Metal1
Rect (0.000000, 1.650000, 1.800000, 1.710000) 
END VDD
Pin VSS
Port
Layer Metal1
Rect (0.000000, 0.000000, 1.800000, 0.060000) 
END VSS
Pin Y
Port
Layer Metal1
Rect (1.450000, 0.410000, 1.720000, 0.520000) 
Layer Metal1
Rect (1.660000, 0.980000, 1.740000, 1.260000) 
Layer Metal1
Rect (1.660000, 0.410000, 1.720000, 1.260000) 
Layer Metal1
Rect (1.375000, 1.200000, 1.740000, 1.260000) 
Layer Metal1
Rect (1.375000, 1.200000, 1.435000, 1.320000) 
Layer Metal1
Rect (0.760000, 0.460000, 1.720000, 0.520000) 
Layer Metal1
Rect (0.760000, 0.380000, 0.820000, 0.520000) 
END Y
Id:    1
Macro:  AOI22X1
CLASS:  CORE
FOREIGN:  AOI22X1 0.000000 0.000000
Size 1.400000 1.710000
Symmetry XY
Site CoreSite
Pin A0
Port
Layer Metal1
Rect (0.260000, 0.600000, 0.340000, 1.100000) 
END A0
Pin A1
Port
Layer Metal1
Rect (0.480000, 0.270000, 0.560000, 0.700000) 
Layer Metal1
Rect (0.460000, 0.270000, 0.560000, 0.350000) 
Layer Metal1
Rect (0.460000, 0.220000, 0.540000, 0.350000) 
Layer Metal1
Rect (0.480000, 0.220000, 0.540000, 0.700000) 
END A1
Pin B0
Port
Layer Metal1
Rect (1.060000, 0.450000, 1.140000, 0.950000) 
END B0
Pin B1
Port
Layer Metal1
Rect (0.860000, 0.410000, 0.940000, 0.910000) 
END B1
Pin VDD
Port
Layer Metal1
Rect (0.000000, 1.650000, 1.400000, 1.710000) 
END VDD
Pin VSS
Port
Layer Metal1
Rect (0.000000, 0.000000, 1.400000, 0.060000) 
END VSS
Pin Y
Port
Layer Metal1
Rect (0.660000, 0.980000, 0.740000, 1.110000) 
Layer Metal1
Rect (0.935000, 1.050000, 0.995000, 1.190000) 
Layer Metal1
Rect (0.680000, 0.370000, 0.740000, 1.110000) 
Layer Metal1
Rect (0.660000, 1.050000, 0.995000, 1.110000) 
END Y
Id:    1
Macro:  AOI22X2
CLASS:  CORE
FOREIGN:  AOI22X2 0.000000 0.000000
Size 2.200000 1.710000
Symmetry XY
Site CoreSite
Pin A0
Port
Layer Metal1
Rect (0.840000, 0.635000, 1.065000, 0.715000) 
Layer Metal1
Rect (0.840000, 0.575000, 0.920000, 0.715000) 
Layer Metal1
Rect (0.480000, 0.575000, 0.920000, 0.655000) 
Layer Metal1
Rect (0.480000, 0.575000, 0.560000, 0.705000) 
Layer Metal1
Rect (0.235000, 0.625000, 0.560000, 0.705000) 
END A0
Pin A1
Port
Layer Metal1
Rect (0.655000, 0.715000, 0.745000, 0.960000) 
END A1
Pin B0
Port
Layer Metal1
Rect (1.840000, 0.580000, 1.960000, 0.895000) 
Layer Metal1
Rect (1.840000, 0.815000, 2.165000, 0.895000) 
Layer Metal1
Rect (1.500000, 0.580000, 1.960000, 0.640000) 
Layer Metal1
Rect (1.500000, 0.580000, 1.560000, 0.715000) 
Layer Metal1
Rect (1.325000, 0.655000, 1.560000, 0.715000) 
END B0
Pin B1
Port
Layer Metal1
Rect (1.660000, 0.740000, 1.740000, 1.030000) 
END B1
Pin VDD
Port
Layer Metal1
Rect (0.000000, 1.650000, 2.200000, 1.710000) 
END VDD
Pin VSS
Port
Layer Metal1
Rect (0.000000, 0.000000, 2.200000, 0.060000) 
END VSS
Pin Y
Port
Layer Metal1
Rect (1.035000, 0.815000, 1.225000, 0.895000) 
Layer Metal1
Rect (1.840000, 0.995000, 1.900000, 1.165000) 
Layer Metal1
Rect (1.430000, 1.105000, 1.900000, 1.165000) 
Layer Metal1
Rect (1.430000, 0.835000, 1.490000, 1.165000) 
Layer Metal1
Rect (1.165000, 0.415000, 1.225000, 0.895000) 
Layer Metal1
Rect (1.035000, 0.835000, 1.490000, 0.895000) 
Layer Metal1
Rect (0.710000, 0.415000, 1.685000, 0.475000) 
END Y
Id:    1
Macro:  BUFX3
CLASS:  CORE
FOREIGN:  BUFX3 0.000000 0.000000
Size 1.200000 1.710000
Symmetry XY
Site CoreSite
Pin A
Port
Layer Metal1
Rect (0.860000, 0.720000, 0.940000, 1.220000) 
END A
Pin VDD
Port
Layer Metal1
Rect (0.000000, 1.650000, 1.200000, 1.710000) 
END VDD
Pin VSS
Port
Layer Metal1
Rect (0.000000, 0.000000, 1.200000, 0.060000) 
END VSS
Pin Y
Port
Layer Metal1
Rect (0.260000, 0.980000, 0.340000, 1.110000) 
Layer Metal1
Rect (0.625000, 1.050000, 0.685000, 1.440000) 
Layer Metal1
Rect (0.585000, 0.345000, 0.645000, 0.465000) 
Layer Metal1
Rect (0.540000, 0.405000, 0.645000, 0.465000) 
Layer Metal1
Rect (0.540000, 0.405000, 0.600000, 0.620000) 
Layer Metal1
Rect (0.260000, 0.560000, 0.320000, 1.110000) 
Layer Metal1
Rect (0.215000, 1.050000, 0.685000, 1.110000) 
Layer Metal1
Rect (0.215000, 1.050000, 0.275000, 1.440000) 
Layer Metal1
Rect (0.175000, 0.560000, 0.600000, 0.620000) 
Layer Metal1
Rect (0.175000, 0.480000, 0.235000, 0.620000) 
END Y
Id:    1
Macro:  BUFX6
CLASS:  CORE
FOREIGN:  BUFX6 0.000000 0.000000
Size 1.800000 1.710000
Symmetry XY
Site CoreSite
Pin A
Port
Layer Metal1
Rect (1.460000, 0.570000, 1.540000, 1.070000) 
END A
Pin VDD
Port
Layer Metal1
Rect (0.000000, 1.650000, 1.800000, 1.710000) 
END VDD
Pin VSS
Port
Layer Metal1
Rect (0.000000, 0.000000, 1.800000, 0.060000) 
END VSS
Pin Y
Port
Layer Metal1
Rect (0.060000, 0.790000, 0.140000, 0.975000) 
Layer Metal1
Rect (0.060000, 0.350000, 0.130000, 1.370000) 
Layer Metal1
Rect (0.890000, 0.915000, 0.950000, 1.370000) 
Layer Metal1
Rect (0.890000, 0.350000, 0.950000, 0.655000) 
Layer Metal1
Rect (0.480000, 0.915000, 0.540000, 1.370000) 
Layer Metal1
Rect (0.480000, 0.350000, 0.540000, 0.655000) 
Layer Metal1
Rect (0.060000, 0.915000, 0.950000, 0.975000) 
Layer Metal1
Rect (0.060000, 0.595000, 0.950000, 0.655000) 
END Y
Id:    1
Macro:  NAND3X1
CLASS:  CORE
FOREIGN:  NAND3X1 0.000000 0.000000
Size 1.000000 1.710000
Symmetry XY
Site CoreSite
Pin A
Port
Layer Metal1
Rect (0.260000, 0.600000, 0.340000, 1.100000) 
END A
Pin B
Port
Layer Metal1
Rect (0.480000, 0.480000, 0.560000, 0.890000) 
Layer Metal1
Rect (0.460000, 0.410000, 0.540000, 0.540000) 
Layer Metal1
Rect (0.480000, 0.410000, 0.540000, 0.890000) 
Layer Metal1
Rect (0.460000, 0.480000, 0.560000, 0.540000) 
END B
Pin C
Port
Layer Metal1
Rect (0.660000, 0.600000, 0.740000, 1.100000) 
END C
Pin VDD
Port
Layer Metal1
Rect (0.000000, 1.650000, 1.000000, 1.710000) 
END VDD
Pin VSS
Port
Layer Metal1
Rect (0.000000, 0.000000, 1.000000, 0.060000) 
END VSS
Pin Y
Port
Layer Metal1
Rect (0.860000, 1.200000, 0.940000, 1.490000) 
Layer Metal1
Rect (0.860000, 0.440000, 0.920000, 1.490000) 
Layer Metal1
Rect (0.745000, 0.440000, 0.920000, 0.500000) 
Layer Metal1
Rect (0.745000, 0.380000, 0.805000, 0.500000) 
Layer Metal1
Rect (0.425000, 1.200000, 0.940000, 1.260000) 
Layer Metal1
Rect (0.425000, 1.200000, 0.485000, 1.480000) 
END Y
Id:    1
Macro:  NAND3X2
CLASS:  CORE
FOREIGN:  NAND3X2 0.000000 0.000000
Size 1.600000 1.710000
Symmetry XY
Site CoreSite
Pin A
Port
Layer Metal1
Rect (0.260000, 0.600000, 0.370000, 0.735000) 
Layer Metal1
Rect (1.240000, 0.495000, 1.300000, 0.735000) 
Layer Metal1
Rect (0.310000, 0.495000, 1.300000, 0.555000) 
Layer Metal1
Rect (0.310000, 0.495000, 0.370000, 0.735000) 
END A
Pin B
Port
Layer Metal1
Rect (1.060000, 0.655000, 1.140000, 0.920000) 
Layer Metal1
Rect (0.470000, 0.655000, 1.140000, 0.715000) 
END B
Pin C
Port
Layer Metal1
Rect (0.520000, 0.815000, 0.765000, 0.955000) 
Layer Metal1
Rect (0.520000, 0.815000, 0.960000, 0.895000) 
END C
Pin VDD
Port
Layer Metal1
Rect (0.000000, 1.650000, 1.600000, 1.710000) 
END VDD
Pin VSS
Port
Layer Metal1
Rect (0.000000, 0.000000, 1.600000, 0.060000) 
END VSS
Pin Y
Port
Layer Metal1
Rect (1.435000, 1.005000, 1.565000, 1.115000) 
Layer Metal1
Rect (0.360000, 1.055000, 0.430000, 1.335000) 
Layer Metal1
Rect (1.505000, 0.335000, 1.565000, 1.115000) 
Layer Metal1
Rect (1.190000, 1.055000, 1.250000, 1.335000) 
Layer Metal1
Rect (0.795000, 0.335000, 1.565000, 0.395000) 
Layer Metal1
Rect (0.780000, 1.055000, 0.840000, 1.335000) 
Layer Metal1
Rect (0.360000, 1.055000, 1.565000, 1.115000) 
END Y
Id:    1
Macro:  NAND4X1
CLASS:  CORE
FOREIGN:  NAND4X1 0.000000 0.000000
Size 1.200000 1.710000
Symmetry XY
Site CoreSite
Pin A
Port
Layer Metal1
Rect (0.230000, 0.650000, 0.340000, 0.920000) 
Layer Metal1
Rect (0.030000, 0.840000, 0.340000, 0.920000) 
END A
Pin B
Port
Layer Metal1
Rect (0.480000, 0.460000, 0.560000, 0.890000) 
Layer Metal1
Rect (0.460000, 0.460000, 0.560000, 0.540000) 
Layer Metal1
Rect (0.460000, 0.410000, 0.540000, 0.540000) 
Layer Metal1
Rect (0.480000, 0.410000, 0.540000, 0.890000) 
END B
Pin C
Port
Layer Metal1
Rect (0.660000, 0.220000, 0.740000, 0.830000) 
END C
Pin D
Port
Layer Metal1
Rect (0.860000, 0.410000, 0.940000, 0.910000) 
END D
Pin VDD
Port
Layer Metal1
Rect (0.000000, 1.650000, 1.200000, 1.710000) 
END VDD
Pin VSS
Port
Layer Metal1
Rect (0.000000, 0.000000, 1.200000, 0.060000) 
END VSS
Pin Y
Port
Layer Metal1
Rect (1.040000, 0.790000, 1.140000, 1.080000) 
Layer Metal1
Rect (1.040000, 0.540000, 1.100000, 1.080000) 
Layer Metal1
Rect (0.790000, 1.020000, 0.850000, 1.300000) 
Layer Metal1
Rect (0.370000, 1.020000, 1.140000, 1.080000) 
Layer Metal1
Rect (0.370000, 1.020000, 0.430000, 1.300000) 
END Y
Id:    1
Macro:  NAND4X2
CLASS:  CORE
FOREIGN:  NAND4X2 0.000000 0.000000
Size 2.200000 1.710000
Symmetry XY
Site CoreSite
Pin A
Port
Layer Metal1
Rect (1.860000, 0.820000, 1.940000, 1.185000) 
Layer Metal1
Rect (0.260000, 1.125000, 1.940000, 1.185000) 
Layer Metal1
Rect (0.260000, 0.820000, 0.320000, 1.185000) 
END A
Pin B
Port
Layer Metal1
Rect (0.460000, 0.790000, 0.540000, 0.920000) 
Layer Metal1
Rect (1.600000, 0.845000, 1.660000, 1.025000) 
Layer Metal1
Rect (0.480000, 0.965000, 1.660000, 1.025000) 
Layer Metal1
Rect (0.480000, 0.790000, 0.540000, 1.025000) 
Layer Metal1
Rect (0.420000, 0.835000, 0.540000, 0.895000) 
END B
Pin C
Port
Layer Metal1
Rect (1.235000, 0.625000, 1.395000, 0.705000) 
Layer Metal1
Rect (1.335000, 0.625000, 1.395000, 0.865000) 
Layer Metal1
Rect (0.685000, 0.805000, 1.395000, 0.865000) 
END C
Pin D
Port
Layer Metal1
Rect (0.860000, 0.625000, 1.135000, 0.705000) 
Layer Metal1
Rect (0.860000, 0.400000, 0.940000, 0.705000) 
END D
Pin VDD
Port
Layer Metal1
Rect (0.000000, 1.650000, 2.200000, 1.710000) 
END VDD
Pin VSS
Port
Layer Metal1
Rect (0.000000, 0.000000, 2.200000, 0.060000) 
END VSS
Pin Y
Port
Layer Metal1
Rect (2.060000, 1.170000, 2.140000, 1.345000) 
Layer Metal1
Rect (2.060000, 0.465000, 2.120000, 1.345000) 
Layer Metal1
Rect (1.730000, 1.285000, 1.790000, 1.405000) 
Layer Metal1
Rect (1.260000, 1.285000, 1.320000, 1.405000) 
Layer Metal1
Rect (1.185000, 0.465000, 2.120000, 0.525000) 
Layer Metal1
Rect (1.070000, 0.445000, 1.235000, 0.505000) 
Layer Metal1
Rect (0.790000, 1.285000, 0.850000, 1.405000) 
Layer Metal1
Rect (0.320000, 1.285000, 2.140000, 1.345000) 
Layer Metal1
Rect (0.320000, 1.285000, 0.380000, 1.405000) 
END Y
Id:    1
Macro:  NOR2X1
CLASS:  CORE
FOREIGN:  NOR2X1 0.000000 0.000000
Size 0.800000 1.710000
Symmetry XY
Site CoreSite
Pin A
Port
Layer Metal1
Rect (0.260000, 0.570000, 0.340000, 1.070000) 
END A
Pin B
Port
Layer Metal1
Rect (0.460000, 0.980000, 0.560000, 1.085000) 
Layer Metal1
Rect (0.480000, 0.730000, 0.560000, 1.085000) 
Layer Metal1
Rect (0.460000, 0.980000, 0.540000, 1.210000) 
Layer Metal1
Rect (0.480000, 0.730000, 0.540000, 1.210000) 
END B
Pin VDD
Port
Layer Metal1
Rect (0.000000, 1.650000, 0.800000, 1.710000) 
END VDD
Pin VSS
Port
Layer Metal1
Rect (0.000000, 0.000000, 0.800000, 0.060000) 
END VSS
Pin Y
Port
Layer Metal1
Rect (0.660000, 0.600000, 0.740000, 0.730000) 
Layer Metal1
Rect (0.660000, 0.570000, 0.720000, 1.290000) 
Layer Metal1
Rect (0.460000, 0.570000, 0.720000, 0.630000) 
Layer Metal1
Rect (0.460000, 0.490000, 0.520000, 0.630000) 
END Y
Id:    1
Macro:  NOR4X2
CLASS:  CORE
FOREIGN:  NOR4X2 0.000000 0.000000
Size 2.000000 1.710000
Symmetry XY
Site CoreSite
Pin A
Port
Layer Metal1
Rect (1.660000, 0.980000, 1.740000, 1.185000) 
Layer Metal1
Rect (1.680000, 0.820000, 1.740000, 1.185000) 
Layer Metal1
Rect (0.260000, 1.125000, 1.740000, 1.185000) 
Layer Metal1
Rect (0.260000, 0.820000, 0.320000, 1.185000) 
END A
Pin B
Port
Layer Metal1
Rect (0.460000, 0.790000, 0.540000, 0.920000) 
Layer Metal1
Rect (1.435000, 0.845000, 1.495000, 1.025000) 
Layer Metal1
Rect (0.480000, 0.965000, 1.495000, 1.025000) 
Layer Metal1
Rect (0.480000, 0.790000, 0.540000, 1.025000) 
Layer Metal1
Rect (0.420000, 0.835000, 0.540000, 0.895000) 
END B
Pin C
Port
Layer Metal1
Rect (1.275000, 0.625000, 1.565000, 0.705000) 
Layer Metal1
Rect (1.275000, 0.625000, 1.335000, 0.865000) 
Layer Metal1
Rect (0.640000, 0.805000, 1.335000, 0.865000) 
END C
Pin D
Port
Layer Metal1
Rect (0.640000, 0.625000, 1.140000, 0.705000) 
END D
Pin VDD
Port
Layer Metal1
Rect (0.000000, 1.650000, 2.000000, 1.710000) 
END VDD
Pin VSS
Port
Layer Metal1
Rect (0.000000, 0.000000, 2.000000, 0.060000) 
END VSS
Pin Y
Port
Layer Metal1
Rect (1.860000, 1.170000, 1.940000, 1.345000) 
Layer Metal1
Rect (1.595000, 0.445000, 1.715000, 0.525000) 
Layer Metal1
Rect (1.155000, 0.445000, 1.275000, 0.525000) 
Layer Metal1
Rect (0.715000, 0.445000, 0.835000, 0.525000) 
Layer Metal1
Rect (1.880000, 0.465000, 1.940000, 1.345000) 
Layer Metal1
Rect (1.010000, 1.285000, 1.940000, 1.345000) 
Layer Metal1
Rect (0.345000, 0.465000, 1.940000, 0.525000) 
Layer Metal1
Rect (0.275000, 0.445000, 0.395000, 0.505000) 
END Y
Id:    1
Macro:  NOR4X4
CLASS:  CORE
FOREIGN:  NOR4X4 0.000000 0.000000
Size 3.800000 1.710000
Symmetry XY
Site CoreSite
Pin A
Port
Layer Metal1
Rect (0.860000, 0.755000, 0.940000, 0.950000) 
Layer Metal1
Rect (0.350000, 0.870000, 0.940000, 0.950000) 
END A
Pin B
Port
Layer Metal1
Rect (1.725000, 0.755000, 1.805000, 0.895000) 
Layer Metal1
Rect (1.240000, 0.815000, 1.805000, 0.895000) 
END B
Pin C
Port
Layer Metal1
Rect (2.435000, 0.775000, 2.570000, 0.895000) 
Layer Metal1
Rect (2.110000, 0.815000, 2.570000, 0.895000) 
END C
Pin D
Port
Layer Metal1
Rect (3.105000, 0.775000, 3.185000, 0.895000) 
Layer Metal1
Rect (2.835000, 0.815000, 3.420000, 0.895000) 
END D
Pin VDD
Port
Layer Metal1
Rect (0.000000, 1.650000, 3.800000, 1.710000) 
END VDD
Pin VSS
Port
Layer Metal1
Rect (0.000000, 0.000000, 3.800000, 0.060000) 
END VSS
Pin Y
Port
Layer Metal1
Rect (1.060000, 0.790000, 1.140000, 0.920000) 
Layer Metal1
Rect (3.460000, 0.515000, 3.520000, 0.655000) 
Layer Metal1
Rect (3.405000, 0.995000, 3.465000, 1.135000) 
Layer Metal1
Rect (3.050000, 0.515000, 3.110000, 0.655000) 
Layer Metal1
Rect (2.995000, 0.995000, 3.055000, 1.135000) 
Layer Metal1
Rect (2.640000, 0.515000, 2.700000, 0.655000) 
Layer Metal1
Rect (2.230000, 0.515000, 2.290000, 0.655000) 
Layer Metal1
Rect (1.820000, 0.515000, 1.880000, 0.655000) 
Layer Metal1
Rect (1.410000, 0.515000, 1.470000, 0.655000) 
Layer Metal1
Rect (1.080000, 0.995000, 3.465000, 1.055000) 
Layer Metal1
Rect (1.080000, 0.595000, 1.140000, 1.055000) 
Layer Metal1
Rect (1.000000, 0.515000, 1.060000, 0.655000) 
Layer Metal1
Rect (0.590000, 0.595000, 3.520000, 0.655000) 
Layer Metal1
Rect (0.590000, 0.515000, 0.650000, 0.655000) 
END Y
Id:    1
Macro:  OR4X1
CLASS:  CORE
FOREIGN:  OR4X1 0.000000 0.000000
Size 1.400000 1.710000
Symmetry XY
Site CoreSite
Pin A
Port
Layer Metal1
Rect (1.060000, 0.475000, 1.140000, 0.765000) 
Layer Metal1
Rect (0.850000, 0.685000, 1.140000, 0.765000) 
END A
Pin B
Port
Layer Metal1
Rect (0.460000, 0.980000, 0.590000, 1.070000) 
Layer Metal1
Rect (0.510000, 0.660000, 0.590000, 1.070000) 
Layer Metal1
Rect (0.460000, 0.980000, 0.540000, 1.110000) 
END B
Pin C
Port
Layer Metal1
Rect (0.330000, 0.590000, 0.410000, 0.870000) 
Layer Metal1
Rect (0.260000, 0.790000, 0.410000, 0.870000) 
Layer Metal1
Rect (0.260000, 0.790000, 0.340000, 1.020000) 
END C
Pin D
Port
Layer Metal1
Rect (0.060000, 0.590000, 0.160000, 0.795000) 
Layer Metal1
Rect (0.030000, 0.735000, 0.120000, 1.040000) 
Layer Metal1
Rect (0.060000, 0.590000, 0.120000, 1.040000) 
Layer Metal1
Rect (0.030000, 0.735000, 0.160000, 0.795000) 
END D
Pin VDD
Port
Layer Metal1
Rect (0.000000, 1.650000, 1.400000, 1.710000) 
END VDD
Pin VSS
Port
Layer Metal1
Rect (0.000000, 0.000000, 1.400000, 0.060000) 
END VSS
Pin Y
Port
Layer Metal1
Rect (1.240000, 0.410000, 1.340000, 0.540000) 
Layer Metal1
Rect (1.240000, 0.395000, 1.300000, 1.385000) 
END Y
