LayerId:    1
LayerName:  VIA12_1C
Metal1
(-0.065000, -0.035000, 0.065000, 0.035000) 
Via1
(-0.035000, -0.035000, 0.035000, 0.035000) 
Metal2
(-0.035000, -0.065000, 0.035000, 0.065000) 
LayerId:    1
LayerName:  VIA12_1C_H
Metal1
(-0.065000, -0.035000, 0.065000, 0.035000) 
Via1
(-0.035000, -0.035000, 0.035000, 0.035000) 
Metal2
(-0.065000, -0.035000, 0.065000, 0.035000) 
LayerId:    1
LayerName:  VIA12_1C_V
Metal1
(-0.035000, -0.065000, 0.035000, 0.065000) 
Via1
(-0.035000, -0.035000, 0.035000, 0.035000) 
Metal2
(-0.035000, -0.065000, 0.035000, 0.065000) 
LayerId:    1
LayerName:  VIA23_1C
Metal2
(-0.035000, -0.065000, 0.035000, 0.065000) 
Via2
(-0.035000, -0.035000, 0.035000, 0.035000) 
Metal3
(-0.065000, -0.035000, 0.065000, 0.035000) 
LayerId:    1
LayerName:  VIA23_1C_H
Metal2
(-0.065000, -0.035000, 0.065000, 0.035000) 
Via2
(-0.035000, -0.035000, 0.035000, 0.035000) 
Metal3
(-0.065000, -0.035000, 0.065000, 0.035000) 
LayerId:    1
LayerName:  VIA23_1C_V
Metal2
(-0.035000, -0.065000, 0.035000, 0.065000) 
Via2
(-0.035000, -0.035000, 0.035000, 0.035000) 
Metal3
(-0.035000, -0.065000, 0.035000, 0.065000) 
LayerId:    1
LayerName:  VIA23_1ST_N
Metal2
(-0.035000, -0.065000, 0.035000, 0.325000) 
Via2
(-0.035000, -0.035000, 0.035000, 0.035000) 
Metal3
(-0.065000, -0.035000, 0.065000, 0.035000) 
LayerId:    1
LayerName:  VIA23_1ST_S
Metal2
(-0.035000, -0.325000, 0.035000, 0.065000) 
Via2
(-0.035000, -0.035000, 0.035000, 0.035000) 
Metal3
(-0.065000, -0.035000, 0.065000, 0.035000) 
LayerId:    1
LayerName:  VIA34_1C
Metal3
(-0.065000, -0.035000, 0.065000, 0.035000) 
Via3
(-0.035000, -0.035000, 0.035000, 0.035000) 
Metal4
(-0.035000, -0.065000, 0.035000, 0.065000) 
LayerId:    1
LayerName:  VIA34_1C_H
Metal3
(-0.065000, -0.035000, 0.065000, 0.035000) 
Via3
(-0.035000, -0.035000, 0.035000, 0.035000) 
Metal4
(-0.065000, -0.035000, 0.065000, 0.035000) 
LayerId:    1
LayerName:  VIA34_1C_V
Metal3
(-0.035000, -0.065000, 0.035000, 0.065000) 
Via3
(-0.035000, -0.035000, 0.035000, 0.035000) 
Metal4
(-0.035000, -0.065000, 0.035000, 0.065000) 
LayerId:    1
LayerName:  VIA34_1ST_E
Metal3
(-0.065000, -0.035000, 0.325000, 0.035000) 
Via3
(-0.035000, -0.035000, 0.035000, 0.035000) 
Metal4
(-0.035000, -0.065000, 0.035000, 0.065000) 
LayerId:    1
LayerName:  VIA34_1ST_W
Metal3
(-0.325000, -0.035000, 0.065000, 0.035000) 
Via3
(-0.035000, -0.035000, 0.035000, 0.035000) 
Metal4
(-0.035000, -0.065000, 0.035000, 0.065000) 
LayerId:    1
LayerName:  VIA45_1C
Metal4
(-0.035000, -0.065000, 0.035000, 0.065000) 
Via4
(-0.035000, -0.035000, 0.035000, 0.035000) 
Metal5
(-0.065000, -0.035000, 0.065000, 0.035000) 
LayerId:    1
LayerName:  VIA45_1C_H
Metal4
(-0.065000, -0.035000, 0.065000, 0.035000) 
Via4
(-0.035000, -0.035000, 0.035000, 0.035000) 
Metal5
(-0.065000, -0.035000, 0.065000, 0.035000) 
LayerId:    1
LayerName:  VIA45_1C_V
Metal4
(-0.035000, -0.065000, 0.035000, 0.065000) 
Via4
(-0.035000, -0.035000, 0.035000, 0.035000) 
Metal5
(-0.035000, -0.065000, 0.035000, 0.065000) 
LayerId:    1
LayerName:  VIA45_1ST_N
Metal4
(-0.035000, -0.065000, 0.035000, 0.325000) 
Via4
(-0.035000, -0.035000, 0.035000, 0.035000) 
Metal5
(-0.065000, -0.035000, 0.065000, 0.035000) 
LayerId:    1
LayerName:  VIA45_1ST_S
Metal4
(-0.035000, -0.325000, 0.035000, 0.065000) 
Via4
(-0.035000, -0.035000, 0.035000, 0.035000) 
Metal5
(-0.065000, -0.035000, 0.065000, 0.035000) 
LayerId:    1
LayerName:  VIA5_0_VH
Metal5
(-0.035000, -0.065000, 0.035000, 0.065000) 
Via5
(-0.035000, -0.035000, 0.035000, 0.035000) 
Metal6
(-0.065000, -0.035000, 0.065000, 0.035000) 
LayerId:    1
LayerName:  VIA6_0_HV
Metal6
(-0.260000, -0.200000, 0.260000, 0.200000) 
Via6
(-0.180000, -0.180000, 0.180000, 0.180000) 
Metal7
(-0.200000, -0.260000, 0.200000, 0.260000) 
LayerId:    1
LayerName:  VIA7_0_VH
Metal7
(-0.200000, -0.260000, 0.200000, 0.260000) 
Via7
(-0.180000, -0.180000, 0.180000, 0.180000) 
Metal8
(-0.260000, -0.200000, 0.260000, 0.200000) 
LayerId:    1
LayerName:  VIA8_0_VH
Metal8
(-0.200000, -0.260000, 0.200000, 0.260000) 
Via8
(-0.180000, -0.180000, 0.180000, 0.180000) 
Metal9
(-0.260000, -0.200000, 0.260000, 0.200000) 
